…
## La fonction **tickers()**
 
Cette fonction ne prend aucun argument et retourne une table de données associant chaque entreprise à un ticker. Il est important de visualiser les tickers. En effet, ils sont utilisés par les autres fonctions du package pour représenter les entreprises auxquelles ils correspondent.

```r
#' Affichage des tickers
tickers()
```

```
## # A tibble: 76 × 2
##    Titre           Ticker
##    <chr>           <chr> 
##  1 Addoha          ADH   
##  2 AFMA            AFM   
##  3 Afric Indus.    AFI   
##  4 Afriquia Gaz    GAZ   
##  5 Agma            AGM   
##  6 Alliances       ADI   
##  7 Aluminium Maroc ALM   
##  8 Aradei Capital  ARD   
##  9 ATLANTASANAD    ATL   
## 10 AttijariwafaBk  ATW   
## # … with 66 more rows
```
…
 
## La fonction **bySector()** :
 
Elle renvoie une table contenant des données par secteur d’activités. Elle est une fonction sans argument.

```r
#Afichage des données par secteur d'activité
bySector()
```

```
## # A tibble: 24 × 4
##    Secteur                                      Valeur    `Var %` `Var % 31/12`
##    <chr>                                        <chr>     <chr>   <chr>        
##  1 BOISSONS                                     16 163,36 4,50 %  13,20 %      
##  2 INGENIERIES & BIENS D’EQUIPEMENT INDUSTRIELS 128,52    3,53 %  91,00 %      
##  3 SYLVICULTURE & PAPIER                        43,04     1,26 %  130,18 %     
##  4 SOCIETES DE PLACEMENT IMMOBILIER             987,40    1,16 %  6,86 %       
##  5 SERVICES DE TRANSPORT                        4 306,92  0,70 %  33,31 %      
##  6 ELECTRICITE                                  2 446,93  0,64 %  19,67 %      
##  7 TELECOMMUNICATIONS                           2 081,20  0,57 %  -2,21 %      
##  8 MATERIELS,LOGICIELS & SERVICES INFORMATIQUES 2 773,58  0,05 %  11,99 %      
##  9 ASSURANCES                                   5 286,11  0,05 %  20,55 %      
## 10 SERVICES AUX COLLECTIVITES                   1 083,33  0,04 %  -30,47 %     
## # … with 14 more rows
```

 
## La fonction **instruments()** :
 
Elle est sans argument et nous donne les informations sur les instruments financiers du marché, telles que le code ISIN, le compartiment, le nombre de titres etc.


```r
#Afichage les instruments financiers du marché
instruments()
```

```
## # A tibble: 76 × 5
##    `Code ISIN`  `Libelle instrum… `Secteur/Catégo… Compartiment `Nombre de titr…
##    <chr>        <chr>             <chr>            <chr>        <chr>           
##  1 MA0000012296 AFMA              ACTIONS 1ERE LI… Principal B  1000000         
##  2 MA0000012114 AFRIC INDUSTRIES… ACTIONS 1ERE LI… Principal B  291500          
##  3 MA0000010951 AFRIQUIA GAZ      ACTIONS 1ERE LI… Principal A  3437500         
##  4 MA0000010944 AGMA              ACTIONS 1ERE LI… Alternatif A 200000          
##  5 MA0000011819 ALLIANCES         ACTIONS 1ERE LI… Principal B  22078588        
##  6 MA0000010936 ALUMINIUM DU MAR… ACTIONS 1ERE LI… Principal B  465954          
##  7 MA0000012460 ARADEI CAPITAL    ACTIONS 1ERE LI… Principal F  10645783        
##  8 MA0000011710 ATLANTASANAD      ACTIONS 1ERE LI… Principal B  60283595        
##  9 MA0000012445 ATTIJARIWAFA BANK ACTIONS 1ERE LI… Principal A  215140839       
## 10 MA0000010969 AUTO HALL         ACTIONS 1ERE LI… Principal B  50294528        
## # … with 66 more rows
```
…
> - **today.market()** : est sans argument et renvoie le cours actuel des instruments financier ainsi que leurs variations, leurs cours à l’ouverture, leurs max etc.

```r
#Affichage des données du marché d'aujourd'hui
today.market()
```

```
## # A tibble: 75 × 9
##    Valeur   `Date/Heure` Ouverture Cours  `Variation %` Quantité Volume `+ Haut`
##    <chr>    <chr>        <chr>     <chr>  <chr>            <dbl> <chr>  <chr>   
##  1 Addoha   15.12.2021   10,98     10,73  -2,37%          337344 3 620… 10,98   
##  2 AFMA     15.12.2021   1 319,00  1 319… 0,00%                1 1 319… 1 319,00
##  3 Afric I… 15.12.2021   345,00    344,00 -0,29%           24668 8 485… 345,00  
##  4 Afriqui… 15.12.2021   5 211,00  5 211… +3,99%              10 52 11… 5 211,00
##  5 Agma     15.12.2021   4 266,00  4 266… 0,00%               23 98 11… 4 266,00
##  6 Allianc… 15.12.2021   39,82     39,80  -0,50%            1630 64 85… 39,95   
##  7 Alumini… 15.12.2021   1 400,00  1 400… 0,00%                1 1 400… 1 400,00
##  8 Aradei … 15.12.2021   409,00    409,00 +0,95%               6 2 454… 409,00  
##  9 ATLANTA… 15.12.2021   116,10    116,00 -0,09%              84 9 708… 116,10  
## 10 Attijar… 15.12.2021   482,10    482,60 -0,19%           18738 9 031… 482,60  
## # … with 65 more rows, and 1 more variable: + Bas <chr>
```

> - **today.transactions()** : permet d’obtenir une table des transactions de la journée. Elle est une fonction sans argument.

```r
#Affichages des transactions de la journée
today.transactions()
```

```
## # A tibble: 50 × 5
##    Heure    `Insturment financier` Cours    Quantité Volume    
##    <chr>    <chr>                  <chr>    <chr>    <chr>     
##  1 15:40:26 JET CONTRACTORS        235,00   11,00    2 585,00  
##  2 15:39:52 ITISSALAT AL-MAGHRIB   142,85   4,00     571,40    
##  3 15:39:33 ATLANTASANAD           116,00   343,00   39 788,00 
##  4 15:39:33 ATLANTASANAD           116,00   230,00   26 680,00 
##  5 15:38:53 RES DAR SAADA          29,60    12,00    355,20    
##  6 15:38:23 HPS                    6 890,00 58,00    399 620,00
##  7 15:38:20 SONASID                628,00   2,00     1 256,00  
##  8 15:38:04 DOUJA PROM ADDOHA      11,22    5 584,00 62 652,48 
##  9 15:37:37 DISWAY                 684,00   100,00   68 400,00 
## 10 15:37:34 DOUJA PROM ADDOHA      11,22    2 000,00 22 440,00 
## # … with 40 more rows
```
…
